%YAML 1.1
%TAG !u! tag:unity3d.com,2011:
--- !u!114 &11400000
MonoBehaviour:
  m_ObjectHideFlags: 0
  m_CorrespondingSourceObject: {fileID: 0}
  m_PrefabInstance: {fileID: 0}
  m_PrefabAsset: {fileID: 0}
  m_GameObject: {fileID: 0}
  m_Enabled: 1
  m_EditorHideFlags: 0
  m_Script: {fileID: 11500000, guid: 24402285d3a557d478220dbe295c379b, type: 3}
  m_Name: NodeHp2
  m_EditorClassIdentifier: 
  activated: 0
  cost: 2
  title: HP
  description: Increments your HP
  type: 1
  value: 20
