%YAML 1.1
%TAG !u! tag:unity3d.com,2011:
--- !u!114 &11400000
MonoBehaviour:
  m_ObjectHideFlags: 0
  m_CorrespondingSourceObject: {fileID: 0}
  m_PrefabInstance: {fileID: 0}
  m_PrefabAsset: {fileID: 0}
  m_GameObject: {fileID: 0}
  m_Enabled: 1
  m_EditorHideFlags: 0
  m_Script: {fileID: 11500000, guid: ad71af65e5cf3684abd30b7544282776, type: 3}
  m_Name: SkillElect1
  m_EditorClassIdentifier: 
  activated: 1
  cost: 3
  title: Electric Skill
  description: Unleash the electric power.
  type: 2
  damage: 0
