%YAML 1.1
%TAG !u! tag:unity3d.com,2011:
--- !u!1 &8839356618652116285
GameObject:
  m_ObjectHideFlags: 0
  m_CorrespondingSourceObject: {fileID: 0}
  m_PrefabInstance: {fileID: 0}
  m_PrefabAsset: {fileID: 0}
  serializedVersion: 6
  m_Component:
  - component: {fileID: 8839356618652116226}
  - component: {fileID: 8839356618652116284}
  m_Layer: 0
  m_Name: BulletManager
  m_TagString: Untagged
  m_Icon: {fileID: 0}
  m_NavMeshLayer: 0
  m_StaticEditorFlags: 0
  m_IsActive: 1
--- !u!4 &8839356618652116226
Transform:
  m_ObjectHideFlags: 0
  m_CorrespondingSourceObject: {fileID: 0}
  m_PrefabInstance: {fileID: 0}
  m_PrefabAsset: {fileID: 0}
  m_GameObject: {fileID: 8839356618652116285}
  m_LocalRotation: {x: -0, y: -0, z: -0, w: 1}
  m_LocalPosition: {x: 151.46243, y: 90.347046, z: 45.917404}
  m_LocalScale: {x: 1, y: 1, z: 1}
  m_Children: []
  m_Father: {fileID: 0}
  m_RootOrder: 0
  m_LocalEulerAnglesHint: {x: 0, y: 0, z: 0}
--- !u!114 &8839356618652116284
MonoBehaviour:
  m_ObjectHideFlags: 0
  m_CorrespondingSourceObject: {fileID: 0}
  m_PrefabInstance: {fileID: 0}
  m_PrefabAsset: {fileID: 0}
  m_GameObject: {fileID: 8839356618652116285}
  m_Enabled: 1
  m_EditorHideFlags: 0
  m_Script: {fileID: 11500000, guid: 2162d0133b262714093e0cec9d72649b, type: 3}
  m_Name: 
  m_EditorClassIdentifier: 
  turnspeed: 50
  bulletprefab: {fileID: 5798974542395364167, guid: 195e388c2d2020f4abb4faca23af6660,
    type: 3}
  randombulletprefab: {fileID: 3314630106797156853, guid: c1e940262c74cb94398412ab512f62a7,
    type: 3}
  waitTime: 1
  debugmode: 0
  mainPJ: {fileID: 0}
  shootmode: 0
